@startuml

title __BADGES-WALLET's Class Diagram__\n

  namespace fr.cnam.foad.nfa035.badges.fileutils.simpleaccess {
    interface fr.cnam.foad.nfa035.badges.fileutils.simpleaccess.ImageSerializer {
    }
  }
  

  namespace fr.cnam.foad.nfa035.badges.fileutils.simpleaccess {
    class fr.cnam.foad.nfa035.badges.fileutils.simpleaccess.ImageSerializerBase64Impl {
    }
  }
  

  namespace fr.cnam.foad.nfa035.badges.fileutils.streaming.media {
    abstract class fr.cnam.foad.nfa035.badges.fileutils.streaming.media.AbstractImageFrameMedia {
    }
  }
  

  namespace fr.cnam.foad.nfa035.badges.fileutils.streaming.media {
    interface fr.cnam.foad.nfa035.badges.fileutils.streaming.media.ImageFrameMedia {
    }
  }
  

  namespace fr.cnam.foad.nfa035.badges.fileutils.streaming.media {
    interface fr.cnam.foad.nfa035.badges.fileutils.streaming.media.ResumableImageFrameMedia {
    }
  }
  

  namespace fr.cnam.foad.nfa035.badges.fileutils.streaming.media {
    interface fr.cnam.foad.nfa035.badges.fileutils.streaming.media.WalletFrameMedia {
    }
  }
  

  namespace fr.cnam.foad.nfa035.badges.fileutils.streaming.media {
    namespace impl {
      class fr.cnam.foad.nfa035.badges.fileutils.streaming.media.impl.ImageByteArrayFrame {
      }
    }
  }
  

  namespace fr.cnam.foad.nfa035.badges.fileutils.streaming.media {
    namespace impl {
      class fr.cnam.foad.nfa035.badges.fileutils.streaming.media.impl.ImageFileFrame {
      }
    }
  }
  

  namespace fr.cnam.foad.nfa035.badges.fileutils.streaming.media {
    namespace impl {
      class fr.cnam.foad.nfa035.badges.fileutils.streaming.media.impl.ResumableImageFileFrame {
      }
    }
  }
  

  namespace fr.cnam.foad.nfa035.badges.fileutils.streaming.media {
    namespace impl {
      class fr.cnam.foad.nfa035.badges.fileutils.streaming.media.impl.WalletFrame {
      }
    }
  }
  

  namespace fr.cnam.foad.nfa035.badges.fileutils.streaming.media {
    namespace impl {
      namespace json {
        class fr.cnam.foad.nfa035.badges.fileutils.streaming.media.impl.json.JSONWalletFrame {
        }
      }
    }
  }
  

  namespace fr.cnam.foad.nfa035.badges.fileutils.streaming.serializer {
    abstract class fr.cnam.foad.nfa035.badges.fileutils.streaming.serializer.AbstractStreamingImageDeserializer {
    }
  }
  

  namespace fr.cnam.foad.nfa035.badges.fileutils.streaming.serializer {
    abstract class fr.cnam.foad.nfa035.badges.fileutils.streaming.serializer.AbstractStreamingImageSerializer {
    }
  }
  

  namespace fr.cnam.foad.nfa035.badges.fileutils.streaming.serializer {
    interface fr.cnam.foad.nfa035.badges.fileutils.streaming.serializer.BadgeDeserializer {
    }
  }
  

  namespace fr.cnam.foad.nfa035.badges.fileutils.streaming.serializer {
    interface fr.cnam.foad.nfa035.badges.fileutils.streaming.serializer.DatabaseDeserializer {
    }
  }
  

  namespace fr.cnam.foad.nfa035.badges.fileutils.streaming.serializer {
    interface fr.cnam.foad.nfa035.badges.fileutils.streaming.serializer.DirectAccessDatabaseDeserializer {
    }
  }
  

  namespace fr.cnam.foad.nfa035.badges.fileutils.streaming.serializer {
    interface fr.cnam.foad.nfa035.badges.fileutils.streaming.serializer.ImageStreamingDeserializer {
    }
  }
  

  namespace fr.cnam.foad.nfa035.badges.fileutils.streaming.serializer {
    interface fr.cnam.foad.nfa035.badges.fileutils.streaming.serializer.ImageStreamingSerializer {
    }
  }
  

  namespace fr.cnam.foad.nfa035.badges.fileutils.streaming.serializer {
    interface fr.cnam.foad.nfa035.badges.fileutils.streaming.serializer.MetadataDeserializer {
    }
  }
  

  namespace fr.cnam.foad.nfa035.badges.fileutils.streaming.serializer {
    namespace impl {
      class fr.cnam.foad.nfa035.badges.fileutils.streaming.serializer.impl.ImageDeserializerBase64DatabaseImpl {
      }
    }
  }
  

  namespace fr.cnam.foad.nfa035.badges.fileutils.streaming.serializer {
    namespace impl {
      class fr.cnam.foad.nfa035.badges.fileutils.streaming.serializer.impl.ImageDeserializerBase64StreamingImpl {
      }
    }
  }
  

  namespace fr.cnam.foad.nfa035.badges.fileutils.streaming.serializer {
    namespace impl {
      class fr.cnam.foad.nfa035.badges.fileutils.streaming.serializer.impl.ImageSerializerBase64DatabaseImpl {
      }
    }
  }
  

  namespace fr.cnam.foad.nfa035.badges.fileutils.streaming.serializer {
    namespace impl {
      class fr.cnam.foad.nfa035.badges.fileutils.streaming.serializer.impl.ImageSerializerBase64StreamingImpl {
      }
    }
  }
  

  namespace fr.cnam.foad.nfa035.badges.fileutils.streaming.serializer {
    namespace impl {
      namespace db {
        class fr.cnam.foad.nfa035.badges.fileutils.streaming.serializer.impl.db.MetadataDeserializerDatabaseImpl {
        }
      }
    }
  }
  

  namespace fr.cnam.foad.nfa035.badges.fileutils.streaming.serializer {
    namespace impl {
      namespace db {
        class fr.cnam.foad.nfa035.badges.fileutils.streaming.serializer.impl.db.WalletDeserializerDirectAccessImpl {
        }
      }
    }
  }
  

  namespace fr.cnam.foad.nfa035.badges.fileutils.streaming.serializer {
    namespace impl {
      namespace db {
        class fr.cnam.foad.nfa035.badges.fileutils.streaming.serializer.impl.db.WalletSerializerDirectAccessImpl {
        }
      }
    }
  }
  

  namespace fr.cnam.foad.nfa035.badges.fileutils.streaming.serializer {
    namespace impl {
      namespace db {
        namespace json {
          interface fr.cnam.foad.nfa035.badges.fileutils.streaming.serializer.impl.db.json.JSONWalletBonusDeserializer {
          }
        }
      }
    }
  }
  

  namespace fr.cnam.foad.nfa035.badges.fileutils.streaming.serializer {
    namespace impl {
      namespace db {
        namespace json {
          class fr.cnam.foad.nfa035.badges.fileutils.streaming.serializer.impl.db.json.JSONWalletDeserializerDAImpl {
          }
        }
      }
    }
  }
  

  namespace fr.cnam.foad.nfa035.badges.fileutils.streaming.serializer {
    namespace impl {
      namespace db {
        namespace json {
          class fr.cnam.foad.nfa035.badges.fileutils.streaming.serializer.impl.db.json.JSONWalletSerializerDAImpl {
          }
        }
      }
    }
  }
  

  namespace fr.cnam.foad.nfa035.badges.fileutils.streaming.serializer {
    namespace impl {
      namespace db {
        namespace json {
          class fr.cnam.foad.nfa035.badges.fileutils.streaming.serializer.impl.db.json.MetadataDeserializerJSONImpl {
          }
        }
      }
    }
  }
  

  namespace fr.cnam.foad.nfa035.badges.fileutils.streaming.serializer {
    namespace impl {
      namespace db {
        namespace proxy {
          class fr.cnam.foad.nfa035.badges.fileutils.streaming.serializer.impl.db.proxy.Base64OutputStreamProxy {
          }
        }
      }
    }
  }
  

  namespace fr.cnam.foad.nfa035.badges.wallet.dao {
    interface fr.cnam.foad.nfa035.badges.wallet.dao.BadgeWalletDAO {
    }
  }
  

  namespace fr.cnam.foad.nfa035.badges.wallet.dao {
    interface fr.cnam.foad.nfa035.badges.wallet.dao.DirectAccessBadgeWalletDAO {
    }
  }
  

  namespace fr.cnam.foad.nfa035.badges.wallet.dao {
    namespace impl {
      class fr.cnam.foad.nfa035.badges.wallet.dao.impl.DirectAccessBadgeWalletDAOImpl {
      }
    }
  }
  

  namespace fr.cnam.foad.nfa035.badges.wallet.dao {
    namespace impl {
      class fr.cnam.foad.nfa035.badges.wallet.dao.impl.MultiBadgeWalletDAOImpl {
      }
    }
  }
  

  namespace fr.cnam.foad.nfa035.badges.wallet.dao {
    namespace impl {
      class fr.cnam.foad.nfa035.badges.wallet.dao.impl.SingleBadgeWalletDAOImpl {
      }
    }
  }
  

  namespace fr.cnam.foad.nfa035.badges.wallet.dao {
    namespace impl {
      namespace json {
        interface fr.cnam.foad.nfa035.badges.wallet.dao.impl.json.JSONBadgeWalletDAO {
        }
      }
    }
  }
  

  namespace fr.cnam.foad.nfa035.badges.wallet.dao {
    namespace impl {
      namespace json {
        class fr.cnam.foad.nfa035.badges.wallet.dao.impl.json.JSONBadgeWalletDAOImpl {
        }
      }
    }
  }
  

  namespace fr.cnam.foad.nfa035.badges.wallet.model {
    class fr.cnam.foad.nfa035.badges.wallet.model.DigitalBadge {
    }
  }
  

  namespace fr.cnam.foad.nfa035.badges.wallet.model {
    class fr.cnam.foad.nfa035.badges.wallet.model.DigitalBadgeMetadata {
    }
  }
  

  fr.cnam.foad.nfa035.badges.fileutils.simpleaccess.ImageSerializerBase64Impl .up.|> fr.cnam.foad.nfa035.badges.fileutils.simpleaccess.ImageSerializer
  fr.cnam.foad.nfa035.badges.fileutils.streaming.media.AbstractImageFrameMedia .up.|> fr.cnam.foad.nfa035.badges.fileutils.streaming.media.ImageFrameMedia
  fr.cnam.foad.nfa035.badges.fileutils.streaming.media.AbstractImageFrameMedia .up.|> java.lang.AutoCloseable
  fr.cnam.foad.nfa035.badges.fileutils.streaming.media.AbstractImageFrameMedia o-- T : channel
  fr.cnam.foad.nfa035.badges.fileutils.streaming.media.impl.ImageByteArrayFrame -up-|> fr.cnam.foad.nfa035.badges.fileutils.streaming.media.AbstractImageFrameMedia
  fr.cnam.foad.nfa035.badges.fileutils.streaming.media.impl.ImageFileFrame -up-|> fr.cnam.foad.nfa035.badges.fileutils.streaming.media.AbstractImageFrameMedia
  fr.cnam.foad.nfa035.badges.fileutils.streaming.media.impl.ResumableImageFileFrame .up.|> fr.cnam.foad.nfa035.badges.fileutils.streaming.media.ResumableImageFrameMedia
  fr.cnam.foad.nfa035.badges.fileutils.streaming.media.impl.ResumableImageFileFrame -up-|> fr.cnam.foad.nfa035.badges.fileutils.streaming.media.AbstractImageFrameMedia
  fr.cnam.foad.nfa035.badges.fileutils.streaming.media.impl.WalletFrame .up.|> fr.cnam.foad.nfa035.badges.fileutils.streaming.media.WalletFrameMedia
  fr.cnam.foad.nfa035.badges.fileutils.streaming.media.impl.WalletFrame .up.|> java.lang.AutoCloseable
  fr.cnam.foad.nfa035.badges.fileutils.streaming.media.impl.WalletFrame -up-|> fr.cnam.foad.nfa035.badges.fileutils.streaming.media.AbstractImageFrameMedia
  fr.cnam.foad.nfa035.badges.fileutils.streaming.media.impl.json.JSONWalletFrame -up-|> fr.cnam.foad.nfa035.badges.fileutils.streaming.media.impl.WalletFrame
  fr.cnam.foad.nfa035.badges.fileutils.streaming.serializer.AbstractStreamingImageDeserializer .up.|> fr.cnam.foad.nfa035.badges.fileutils.streaming.serializer.ImageStreamingDeserializer
  fr.cnam.foad.nfa035.badges.fileutils.streaming.serializer.AbstractStreamingImageSerializer .up.|> fr.cnam.foad.nfa035.badges.fileutils.streaming.serializer.ImageStreamingSerializer
  fr.cnam.foad.nfa035.badges.fileutils.streaming.serializer.impl.ImageDeserializerBase64DatabaseImpl .up.|> fr.cnam.foad.nfa035.badges.fileutils.streaming.serializer.DatabaseDeserializer
  fr.cnam.foad.nfa035.badges.fileutils.streaming.serializer.impl.ImageDeserializerBase64StreamingImpl -up-|> fr.cnam.foad.nfa035.badges.fileutils.streaming.serializer.AbstractStreamingImageDeserializer
  fr.cnam.foad.nfa035.badges.fileutils.streaming.serializer.impl.ImageSerializerBase64DatabaseImpl -up-|> fr.cnam.foad.nfa035.badges.fileutils.streaming.serializer.AbstractStreamingImageSerializer
  fr.cnam.foad.nfa035.badges.fileutils.streaming.serializer.impl.ImageSerializerBase64StreamingImpl -up-|> fr.cnam.foad.nfa035.badges.fileutils.streaming.serializer.AbstractStreamingImageSerializer
  fr.cnam.foad.nfa035.badges.fileutils.streaming.serializer.impl.db.MetadataDeserializerDatabaseImpl .up.|> fr.cnam.foad.nfa035.badges.fileutils.streaming.serializer.MetadataDeserializer
  fr.cnam.foad.nfa035.badges.fileutils.streaming.serializer.impl.db.WalletDeserializerDirectAccessImpl .up.|> fr.cnam.foad.nfa035.badges.fileutils.streaming.serializer.DirectAccessDatabaseDeserializer
  fr.cnam.foad.nfa035.badges.fileutils.streaming.serializer.impl.db.WalletSerializerDirectAccessImpl -up-|> fr.cnam.foad.nfa035.badges.fileutils.streaming.serializer.AbstractStreamingImageSerializer
  fr.cnam.foad.nfa035.badges.fileutils.streaming.serializer.impl.db.json.JSONWalletDeserializerDAImpl .up.|> fr.cnam.foad.nfa035.badges.fileutils.streaming.serializer.impl.db.json.JSONWalletBonusDeserializer
  fr.cnam.foad.nfa035.badges.fileutils.streaming.serializer.impl.db.json.JSONWalletSerializerDAImpl -up-|> fr.cnam.foad.nfa035.badges.fileutils.streaming.serializer.AbstractStreamingImageSerializer
  fr.cnam.foad.nfa035.badges.fileutils.streaming.serializer.impl.db.json.MetadataDeserializerJSONImpl .up.|> fr.cnam.foad.nfa035.badges.fileutils.streaming.serializer.MetadataDeserializer
  fr.cnam.foad.nfa035.badges.fileutils.streaming.serializer.impl.db.json.MetadataDeserializerJSONImpl -up-|> fr.cnam.foad.nfa035.badges.fileutils.streaming.serializer.impl.db.MetadataDeserializerDatabaseImpl
  fr.cnam.foad.nfa035.badges.fileutils.streaming.serializer.impl.db.proxy.Base64OutputStreamProxy .up.|> java.io.Closeable
  fr.cnam.foad.nfa035.badges.fileutils.streaming.serializer.impl.db.proxy.Base64OutputStreamProxy .up.|> java.io.Flushable
  fr.cnam.foad.nfa035.badges.fileutils.streaming.serializer.impl.db.proxy.Base64OutputStreamProxy .up.|> java.lang.AutoCloseable
  fr.cnam.foad.nfa035.badges.fileutils.streaming.serializer.impl.db.proxy.Base64OutputStreamProxy -up-|> java.io.FilterOutputStream
  fr.cnam.foad.nfa035.badges.wallet.dao.impl.DirectAccessBadgeWalletDAOImpl .up.|> fr.cnam.foad.nfa035.badges.wallet.dao.DirectAccessBadgeWalletDAO
  fr.cnam.foad.nfa035.badges.wallet.dao.impl.MultiBadgeWalletDAOImpl .up.|> fr.cnam.foad.nfa035.badges.wallet.dao.BadgeWalletDAO
  fr.cnam.foad.nfa035.badges.wallet.dao.impl.MultiBadgeWalletDAOImpl o-- fr.cnam.foad.nfa035.badges.fileutils.streaming.media.ResumableImageFrameMedia : media
  fr.cnam.foad.nfa035.badges.wallet.dao.impl.SingleBadgeWalletDAOImpl .up.|> fr.cnam.foad.nfa035.badges.wallet.dao.BadgeWalletDAO
  fr.cnam.foad.nfa035.badges.wallet.dao.impl.SingleBadgeWalletDAOImpl o-- fr.cnam.foad.nfa035.badges.fileutils.streaming.media.ImageFrameMedia : media
  fr.cnam.foad.nfa035.badges.wallet.dao.impl.json.JSONBadgeWalletDAOImpl .up.|> fr.cnam.foad.nfa035.badges.wallet.dao.impl.json.JSONBadgeWalletDAO
  fr.cnam.foad.nfa035.badges.wallet.model.DigitalBadge .up.|> java.lang.Comparable
  fr.cnam.foad.nfa035.badges.wallet.model.DigitalBadge o-- fr.cnam.foad.nfa035.badges.wallet.model.DigitalBadgeMetadata : metadata
  fr.cnam.foad.nfa035.badges.wallet.model.DigitalBadgeMetadata .up.|> java.lang.Comparable


right footer


PlantUML diagram generated by SketchIt! (https://bitbucket.org/pmesmeur/sketch.it)
For more information about this tool, please contact philippe.mesmeur@gmail.com
endfooter

@enduml
